\relax 
\@writefile{toc}{\contentsline {chapter}{\numberline {1}Introducci\'on}{1}{chapter.1}}
\@writefile{lof}{\addvspace {10\p@ }}
\@writefile{lot}{\addvspace {10\p@ }}
\@writefile{toc}{\contentsline {section}{\numberline {1.1}Audiencia}{1}{section.1.1}}
\@writefile{toc}{\contentsline {section}{\numberline {1.2}Organizaci\'on del Documento}{2}{section.1.2}}
\@writefile{toc}{\contentsline {section}{\numberline {1.3}Convenciones}{2}{section.1.3}}
\@writefile{lot}{\contentsline {table}{\numberline {1.1}{\ignorespaces Convenciones\relax }}{2}{table.caption.7}}
\@writefile{toc}{\contentsline {section}{\numberline {1.4}Terminolog\IeC {\'\i }a y Definiciones}{2}{section.1.4}}
\@writefile{lot}{\contentsline {table}{\numberline {1.2}{\ignorespaces Terminolog\IeC {\'\i }a\relax }}{2}{table.caption.8}}
\@setckpt{preamble/introduction}{
\setcounter{page}{3}
\setcounter{equation}{0}
\setcounter{enumi}{0}
\setcounter{enumii}{0}
\setcounter{enumiii}{0}
\setcounter{enumiv}{0}
\setcounter{footnote}{0}
\setcounter{mpfootnote}{0}
\setcounter{part}{0}
\setcounter{chapter}{1}
\setcounter{section}{4}
\setcounter{subsection}{0}
\setcounter{subsubsection}{0}
\setcounter{paragraph}{0}
\setcounter{subparagraph}{0}
\setcounter{figure}{0}
\setcounter{table}{2}
\setcounter{r@tfl@t}{0}
\setcounter{LT@tables}{0}
\setcounter{LT@chunks}{0}
\setcounter{Item}{0}
\setcounter{Hfootnote}{0}
\setcounter{bookmark@seq@number}{8}
\setcounter{ContinuedFloat}{0}
\setcounter{KVtest}{1}
\setcounter{subfigure}{0}
\setcounter{subfigure@save}{0}
\setcounter{lofdepth}{1}
\setcounter{subtable}{0}
\setcounter{subtable@save}{0}
\setcounter{lotdepth}{1}
\setcounter{section@level}{0}
}
